{
  "item": "AdminWeapon",
  "airControlAlways": true,
  "isACancel": false,
  "allowCrouch": false,
  "cannotBeCanceledByWeapon": false,
  "strikeChain": [
    {
      "charge": 1,
      "coolDown": 0.9,
      "lockCtrlAfter": 1.2,
      "animId": "atkBroadSwordC",
      "power": [
        2000
      ],
      "fxId": "fxAtkBroadSwordC",
      "dynamicCharge": 0,
      "breachBonus": 1000,
      "props": {},
      "hitFrame": 30,
      "animSpd": 0.5,
      "canCrit": false,
      "area": {
        "shape": 0,
        "width": 9,
        "height": 0,
        "offsetCaseX": -2,
        "offsetCaseY": -0.2
      },
      "glowColor": 13697024,
      "fxInnerColor": 0,
      "fxOuterColor": 0,
      "sfxRelease": "sfx/enm_berserk_release1.wav",
      "sfxHit": "sfx/hit_broadsword.wav",
      "sfxCharge": "sfx/scythe.wav"
    }
  ],
  "__separator_group_ID": -1,
  "__separator_group_Name": "",
  "__original_Index": 1
}
