{
  "airControlAlways": true,
  "isACancel": false,
  "allowCrouch": false,
  "cannotBeCanceledByWeapon": false,
  "strikeChain": [
    {
      "charge": 0.1,
      "coolDown": 0.3,
      "lockCtrlAfter": 0.06,
      "hitFrame": 4,
      "area": {
        "shape": 1,
        "width": 3.4,
        "height": 2,
        "offsetCaseX": 0,
        "offsetCaseY": 0
      },
      "breachBonus": 1,
      "dynamicCharge": 0,
      "canCrit": false,
      "props": {
        "bump": 0.25
      },
      "animId": "atkPunchA",
      "fxId": "fxAtkPunchA",
      "glowColor": 5723391,
      "fxInnerColor": 8116473,
      "fxOuterColor": 8626683,
      "power": [
        20
      ],
      "sfxRelease": "sfx/weapon_multikick_release.wav",
      "sfxHit": "sfx/weapon_kick_hit.wav",
      "animSpd": 2,
      "onionSkinFrame": 7,
      "fxOffset": [
        5,
        0
      ]
    },
    {
      "charge": 0.1,
      "coolDown": 0,
      "lockCtrlAfter": 0.06,
      "hitFrame": 1,
      "area": {
        "shape": 1,
        "width": 3.1,
        "height": 2,
        "offsetCaseX": 0,
        "offsetCaseY": 0
      },
      "breachBonus": 1,
      "dynamicCharge": 0,
      "canCrit": false,
      "props": {
        "bump": 0.06
      },
      "animId": "atkPunchB",
      "fxId": "fxAtkPunchB",
      "glowColor": 5723391,
      "fxInnerColor": 8116473,
      "fxOuterColor": 8626683,
      "power": [
        20
      ],
      "sfxRelease": "sfx/weapon_multikick_release.wav",
      "sfxHit": "sfx/weapon_kick_hit.wav",
      "animSpd": 2.8,
      "onionSkinFrame": 3,
      "fxOffset": [
        12,
        0
      ]
    },
    {
      "charge": 0.1,
      "coolDown": 0,
      "lockCtrlAfter": 0.06,
      "hitFrame": 3,
      "area": {
        "shape": 1,
        "width": 3,
        "height": 2,
        "offsetCaseX": 0,
        "offsetCaseY": 0
      },
      "breachBonus": 1,
      "dynamicCharge": 0,
      "canCrit": false,
      "props": {
        "bump": 0.2
      },
      "animId": "atkPunchC",
      "animSpd": 2.2,
      "fxId": "fxAtkPunchC",
      "onionSkinFrame": 7,
      "glowColor": 5723391,
      "fxInnerColor": 8116473,
      "fxOuterColor": 8626683,
      "power": [
        25
      ],
      "sfxRelease": "sfx/weapon_multikick_release.wav",
      "sfxHit": "sfx/weapon_kick_hit.wav",
      "fxOffset": [
        9,
        0
      ]
    },
    {
      "charge": 0.15,
      "coolDown": 0,
      "lockCtrlAfter": 0.06,
      "hitFrame": 4,
      "area": {
        "shape": 1,
        "width": 3,
        "height": 2.6,
        "offsetCaseX": 0,
        "offsetCaseY": 0
      },
      "breachBonus": 1.5,
      "dynamicCharge": 0,
      "canCrit": false,
      "props": {
        "bump": 0.06
      },
      "animId": "comboKickA",
      "animSpd": 1.5,
      "fxId": "fxComboKickA",
      "onionSkinFrame": 6,
      "fxInnerColor": 16763910,
      "fxOuterColor": 14893342,
      "power": [
        35
      ],
      "sfxRelease": "sfx/weapon_multikick_release.wav",
      "sfxHit": "sfx/weapon_kick_hit.wav",
      "glowColor": 12066598
    },
    {
      "charge": 0.15,
      "coolDown": 0,
      "lockCtrlAfter": 0.06,
      "hitFrame": 6,
      "area": {
        "shape": 1,
        "width": 3.5,
        "height": 2.5,
        "offsetCaseX": 0,
        "offsetCaseY": 0
      },
      "breachBonus": 1,
      "dynamicCharge": 0,
      "canCrit": false,
      "props": {
        "bump": 0.3
      },
      "animId": "atkPunchC",
      "fxId": "fxAtkPunchC",
      "fxInnerColor": 8116473,
      "fxOuterColor": 8626683,
      "power": [
        20
      ],
      "sfxRelease": "sfx/weapon_multikick_release.wav",
      "sfxHit": "sfx/weapon_kick_hit.wav",
      "animSpd": 1.4,
      "onionSkinFrame": 8,
      "fxOffset": [
        9,
        0
      ],
      "glowColor": 5723391
    },
    {
      "charge": 0.18,
      "coolDown": 0,
      "lockCtrlAfter": 0.25,
      "hitFrame": 4,
      "area": {
        "shape": 0,
        "width": 2.75,
        "offsetCaseY": -0.5,
        "offsetCaseX": 0.3,
        "height": 0
      },
      "breachBonus": 2,
      "dynamicCharge": 0,
      "canCrit": true,
      "props": {
        "duration": 1.5,
        "bump": 0.06
      },
      "animId": "comboKickB",
      "animSpd": 1.2,
      "fxId": "fxComboKickB",
      "fxInnerColor": 16763910,
      "power": [
        50
      ],
      "sfxRelease": "sfx/weapon_multikick_release.wav",
      "sfxHit": "sfx/weapon_kick_hit.wav",
      "critMul": 1.1,
      "fxOuterColor": 14893342,
      "glowColor": 12066598,
      "onionSkinFrame": 4
    }
  ],
  "item": "QuickFists",
  "__separator_group_ID": -1,
  "__separator_group_Name": "",
  "__original_Index": 20
}