{
  "item": "GreedShield",
  "airControlAlways": false,
  "isACancel": true,
  "allowCrouch": false,
  "strikeChain": [
    {
      "charge": 0.37,
      "coolDown": 0,
      "lockCtrlAfter": 0,
      "dynamicCharge": 1,
      "breachBonus": 0,
      "props": {
        "duration": 1.5
      },
      "hitFrame": 0,
      "canCrit": true,
      "area": {
        "shape": 0,
        "width": 0,
        "height": 0,
        "offsetCaseX": 0,
        "offsetCaseY": 0
      },
      "sfxHit": "sfx/weapon_shield_block.wav",
      "sfxCharge": "sfx/weapon_shield_charge.wav",
      "power": [
        40
      ]
    }
  ],
  "cannotBeCanceledByWeapon": true,
  "__separator_group_ID": -1,
  "__separator_group_Name": "",
  "__original_Index": 43
}