{
  "airControlAlways": true,
  "isACancel": true,
  "allowCrouch": false,
  "cannotBeCanceledByWeapon": true,
  "strikeChain": [
    {
      "charge": 0.37,
      "coolDown": 0,
      "lockCtrlAfter": 0,
      "hitFrame": 0,
      "area": {
        "width": 0,
        "height": 0,
        "offsetCaseX": 0,
        "offsetCaseY": 0,
        "shape": 0
      },
      "breachBonus": -1,
      "dynamicCharge": 1,
      "canCrit": false,
      "props": {
        "duration": 0.7
      },
      "sfxHit": "sfx/weapon_shield_block.wav",
      "sfxCharge": "sfx/weapon_shield_charge.wav",
      "power": [
        40
      ],
      "sfxRelease": "sfx/active_phaser.wav"
    }
  ],
  "item": "HoldShield",
  "__separator_group_ID": -1,
  "__separator_group_Name": "",
  "__original_Index": 48
}