{
  "item": "FireBall",
  "airControlAlways": true,
  "isACancel": false,
  "strikeChain": [
    {
      "charge": 0.15,
      "coolDown": 0.16,
      "lockCtrlAfter": 0.1,
      "breachBonus": -1,
      "dynamicCharge": 0,
      "props": {
        "range": 1,
        "aoeDuration": 1,
        "dps": [
          30
        ],
        "scale": 0.4,
        "duration": 1
      },
      "animId": "atkPunchA",
      "fxId": "fxThrow",
      "hitFrame": 5,
      "power": [
        15
      ],
      "canCrit": true,
      "area": {
        "shape": 0,
        "width": 0,
        "height": 0,
        "offsetCaseX": 0,
        "offsetCaseY": 0
      },
      "glowColor": 5617398,
      "fxInnerColor": 16773773,
      "fxOuterColor": 12655104,
      "animSpd": 1.6,
      "fxStartFrame": 5,
      "sfxRelease": "sfx/weapon_fireball_release1.wav",
      "critMul": 0.75
    },
    {
      "charge": 0.2,
      "coolDown": 0,
      "lockCtrlAfter": 0.3,
      "hitFrame": 7,
      "area": {
        "shape": 0,
        "width": 0,
        "height": 0,
        "offsetCaseX": 0,
        "offsetCaseY": 0
      },
      "breachBonus": -1,
      "dynamicCharge": 0,
      "canCrit": true,
      "props": {
        "range": 1,
        "aoeDuration": 1,
        "dps": [
          30
        ],
        "scale": 0.5,
        "duration": 1
      },
      "animId": "throw",
      "animSpd": 1,
      "fxStartFrame": 5,
      "glowColor": 5617398,
      "fxInnerColor": 16773773,
      "fxOuterColor": 12655104,
      "power": [
        50
      ],
      "fxId": "fxThrow",
      "sfxRelease": "sfx/weapon_fireball_release2.wav",
      "critMul": 0.75
    },
    {
      "charge": 0.1,
      "coolDown": 0.16,
      "lockCtrlAfter": 0.06,
      "hitFrame": 2,
      "area": {
        "shape": 0,
        "width": 0,
        "height": 0,
        "offsetCaseX": 0,
        "offsetCaseY": 0
      },
      "breachBonus": -1,
      "dynamicCharge": 0,
      "canCrit": true,
      "props": {
        "range": 1,
        "aoeDuration": 1,
        "dps": [
          30
        ],
        "scale": 0.4,
        "duration": 2
      },
      "animId": "throw",
      "animSpd": 2,
      "fxStartFrame": 1,
      "fxId": "fxThrow",
      "glowColor": 5617398,
      "fxInnerColor": 16773773,
      "fxOuterColor": 12655104,
      "power": [
        15
      ],
      "sfxRelease": "sfx/weapon_fireball_release2.wav",
      "critMul": 0.75
    },
    {
      "charge": 0.3,
      "coolDown": 0,
      "lockCtrlAfter": 0.35,
      "breachBonus": 0.5,
      "dynamicCharge": 0,
      "props": {
        "range": 4,
        "aoeDuration": 10,
        "dps": [
          30
        ],
        "scale": 1.2,
        "duration": 3
      },
      "animId": "atkPunchC",
      "hitFrame": 6,
      "fxId": "fxFireballB",
      "power": [
        100
      ],
      "canCrit": true,
      "area": {
        "shape": 0,
        "width": 0,
        "height": 0,
        "offsetCaseX": 0,
        "offsetCaseY": 0
      },
      "glowColor": 16742432,
      "fxInnerColor": 16731904,
      "fxOuterColor": 12655104,
      "animSpd": 1.5,
      "fxStartFrame": 3,
      "sfxCharge": "sfx/weapon_fireball_charge2.wav",
      "sfxRelease": "sfx/weapon_fireball_release3.wav"
    }
  ],
  "allowCrouch": false,
  "cannotBeCanceledByWeapon": false,
  "__separator_group_ID": -1,
  "__separator_group_Name": "",
  "__original_Index": 50
}