{
  "id": "aCKeyHammer",
  "active": true,
  "flags": 2,
  "width": 3,
  "height": 6,
  "tileProps": [],
  "layers": [
    {
      "name": "col",
      "data": {
        "file": "editor/cols.png",
        "size": 16,
        "stride": 4,
        "data": "AAAAAAAAAAAAAAAAAAAAAAAAAAAAAAAAAAAAAAAAAQABAAEA"
      }
    },
    {
      "name": "lnk",
      "data": {
        "file": "editor/links.png",
        "size": 16,
        "stride": 4,
        "data": "BQAAAAUABQAAAAUABQAAAAUABQAAAAUABQAAAAUAAAAAAAAA"
      }
    }
  ],
  "markers": [
    {
      "x": 1,
      "y": 4,
      "marker": "ForcedMob",
      "width": 1,
      "height": 1,
      "item": "CourtyardKey",
      "mob": "Hammer",
      "customId": "elite"
    }
  ],
  "group": 69,
  "type": "Combat",
  "props": {
    "tileSize": 16,
    "layers": [
      {
        "l": "col",
        "p": {
          "alpha": 1
        }
      },
      {
        "l": "lnk",
        "p": {
          "alpha": 0.68
        }
      },
      {
        "l": "markers",
        "p": {
          "alpha": 0.6
        }
      }
    ]
  },
  "__separator_group_ID": 69,
  "__separator_group_Name": "alaahCourtyardKey",
  "__original_Index": 1477
}