{
  "id": "CemSecretKey",
  "name": "Neptune's Sphere",
  "moneyCost": 0,
  "cellCost": 0,
  "droppable": false,
  "hasLevels": false,
  "castCD": 0,
  "tags": [
    {
      "tag": "Key"
    }
  ],
  "props": {
    "highActivationPriority": true
  },
  "group": 9,
  "icon": {
    "file": "cardIcons.png",
    "size": 24,
    "x": 0,
    "y": 8
  },
  "gameplayDesc": "Lucky that it's small and humble so you don't confuse it with a mountain.",
  "__separator_group_ID": 9,
  "__separator_group_Name": "BagItem",
  "__original_Index": 124
}